<svg width="478" height="82" viewBox="0 0 478 82" fill="none" xmlns="http://www.w3.org/2000/svg">
<path d="M2.02273 29V5.72727H6.94318V15.3295H16.9318V5.72727H21.8409V29H16.9318V19.3864H6.94318V29H2.02273ZM25.8977 29V5.72727H35.0795C36.8371 5.72727 38.3371 6.04167 39.5795 6.67045C40.8295 7.29167 41.7803 8.17424 42.4318 9.31818C43.0909 10.4545 43.4205 11.7917 43.4205 13.3295C43.4205 14.875 43.0871 16.2045 42.4205 17.3182C41.7538 18.4242 40.7879 19.2727 39.5227 19.8636C38.2652 20.4545 36.7424 20.75 34.9545 20.75H28.8068V16.7955H34.1591C35.0985 16.7955 35.8788 16.6667 36.5 16.4091C37.1212 16.1515 37.5833 15.7652 37.8864 15.25C38.197 14.7348 38.3523 14.0947 38.3523 13.3295C38.3523 12.5568 38.197 11.9053 37.8864 11.375C37.5833 10.8447 37.1174 10.4432 36.4886 10.1705C35.8674 9.89015 35.0833 9.75 34.1364 9.75H30.8182V29H25.8977ZM38.4659 18.4091L44.25 29H38.8182L33.1591 18.4091H38.4659ZM57.6818 15.4432V19.2841H47.0682V15.4432H57.6818ZM65.9091 29H60.6364L68.6705 5.72727H75.0114L83.0341 29H77.7614L71.9318 11.0455H71.75L65.9091 29ZM65.5795 19.8523H78.0341V23.6932H65.5795V19.8523ZM82.1051 9.78409V5.72727H101.219V9.78409H94.0938V29H89.2301V9.78409H82.1051ZM116.991 12.4205C116.901 11.5038 116.51 10.7917 115.821 10.2841C115.132 9.77651 114.196 9.52273 113.014 9.52273C112.211 9.52273 111.533 9.63636 110.98 9.86364C110.427 10.0833 110.003 10.3902 109.707 10.7841C109.42 11.178 109.276 11.625 109.276 12.125C109.26 12.5417 109.348 12.9053 109.537 13.2159C109.734 13.5265 110.003 13.7955 110.344 14.0227C110.685 14.2424 111.079 14.4356 111.526 14.6023C111.973 14.7614 112.45 14.8977 112.957 15.0114L115.048 15.5114C116.063 15.7386 116.995 16.0417 117.844 16.4205C118.692 16.7992 119.427 17.2652 120.048 17.8182C120.67 18.3712 121.151 19.0227 121.491 19.7727C121.84 20.5227 122.018 21.3826 122.026 22.3523C122.018 23.7765 121.654 25.0114 120.935 26.0568C120.223 27.0947 119.192 27.9015 117.844 28.4773C116.503 29.0455 114.885 29.3295 112.991 29.3295C111.113 29.3295 109.476 29.0417 108.082 28.4659C106.696 27.8902 105.613 27.0379 104.832 25.9091C104.06 24.7727 103.654 23.3674 103.616 21.6932H108.378C108.431 22.4735 108.654 23.125 109.048 23.6477C109.45 24.1629 109.984 24.553 110.651 24.8182C111.325 25.0758 112.086 25.2045 112.935 25.2045C113.768 25.2045 114.491 25.0833 115.105 24.8409C115.726 24.5985 116.207 24.2614 116.548 23.8295C116.889 23.3977 117.06 22.9015 117.06 22.3409C117.06 21.8182 116.904 21.3788 116.594 21.0227C116.291 20.6667 115.844 20.3636 115.253 20.1136C114.67 19.8636 113.954 19.6364 113.105 19.4318L110.571 18.7955C108.609 18.3182 107.06 17.572 105.923 16.5568C104.787 15.5417 104.223 14.1742 104.23 12.4545C104.223 11.0455 104.598 9.81439 105.355 8.76136C106.12 7.70833 107.17 6.88636 108.503 6.29545C109.836 5.70454 111.351 5.40909 113.048 5.40909C114.776 5.40909 116.283 5.70454 117.571 6.29545C118.866 6.88636 119.874 7.70833 120.594 8.76136C121.313 9.81439 121.685 11.0341 121.707 12.4205H116.991Z" fill="#7852A9"/>
<path d="M16.1591 62H14.0455C13.9205 61.392 13.7017 60.858 13.3892 60.3977C13.0824 59.9375 12.7074 59.5511 12.2642 59.2386C11.8267 58.9205 11.3409 58.6818 10.8068 58.5227C10.2727 58.3636 9.71591 58.2841 9.13636 58.2841C8.07955 58.2841 7.12216 58.5511 6.2642 59.0852C5.41193 59.6193 4.73295 60.4062 4.22727 61.446C3.72727 62.4858 3.47727 63.7614 3.47727 65.2727C3.47727 66.7841 3.72727 68.0597 4.22727 69.0994C4.73295 70.1392 5.41193 70.9261 6.2642 71.4602C7.12216 71.9943 8.07955 72.2614 9.13636 72.2614C9.71591 72.2614 10.2727 72.1818 10.8068 72.0227C11.3409 71.8636 11.8267 71.6278 12.2642 71.3153C12.7074 70.9972 13.0824 70.608 13.3892 70.1477C13.7017 69.6818 13.9205 69.1477 14.0455 68.5455H16.1591C16 69.4375 15.7102 70.2358 15.2898 70.9403C14.8693 71.6449 14.3466 72.2443 13.7216 72.7386C13.0966 73.2273 12.3949 73.5994 11.6165 73.8551C10.8438 74.1108 10.017 74.2386 9.13636 74.2386C7.64773 74.2386 6.32386 73.875 5.16477 73.1477C4.00568 72.4205 3.09375 71.3864 2.42898 70.0455C1.7642 68.7045 1.43182 67.1136 1.43182 65.2727C1.43182 63.4318 1.7642 61.8409 2.42898 60.5C3.09375 59.1591 4.00568 58.125 5.16477 57.3977C6.32386 56.6705 7.64773 56.3068 9.13636 56.3068C10.017 56.3068 10.8438 56.4347 11.6165 56.6903C12.3949 56.946 13.0966 57.321 13.7216 57.8153C14.3466 58.304 14.8693 58.9006 15.2898 59.6051C15.7102 60.304 16 61.1023 16.1591 62ZM24.62 74.2727C23.4382 74.2727 22.4013 73.9915 21.5092 73.429C20.6229 72.8665 19.9297 72.0795 19.4297 71.0682C18.9354 70.0568 18.6882 68.875 18.6882 67.5227C18.6882 66.1591 18.9354 64.9687 19.4297 63.9517C19.9297 62.9347 20.6229 62.1449 21.5092 61.5824C22.4013 61.0199 23.4382 60.7386 24.62 60.7386C25.8018 60.7386 26.8359 61.0199 27.7223 61.5824C28.6143 62.1449 29.3075 62.9347 29.8018 63.9517C30.3018 64.9687 30.5518 66.1591 30.5518 67.5227C30.5518 68.875 30.3018 70.0568 29.8018 71.0682C29.3075 72.0795 28.6143 72.8665 27.7223 73.429C26.8359 73.9915 25.8018 74.2727 24.62 74.2727ZM24.62 72.4659C25.5178 72.4659 26.2564 72.2358 26.8359 71.7756C27.4155 71.3153 27.8445 70.7102 28.1229 69.9602C28.4013 69.2102 28.5405 68.3977 28.5405 67.5227C28.5405 66.6477 28.4013 65.8324 28.1229 65.0767C27.8445 64.321 27.4155 63.7102 26.8359 63.2443C26.2564 62.7784 25.5178 62.5455 24.62 62.5455C23.7223 62.5455 22.9837 62.7784 22.4041 63.2443C21.8246 63.7102 21.3956 64.321 21.1172 65.0767C20.8388 65.8324 20.6996 66.6477 20.6996 67.5227C20.6996 68.3977 20.8388 69.2102 21.1172 69.9602C21.3956 70.7102 21.8246 71.3153 22.4041 71.7756C22.9837 72.2358 23.7223 72.4659 24.62 72.4659ZM35.6335 66.125V74H33.6222V60.9091H35.5653V62.9545H35.7358C36.0426 62.2898 36.5085 61.7557 37.1335 61.3523C37.7585 60.9432 38.5653 60.7386 39.554 60.7386C40.4403 60.7386 41.2159 60.9205 41.8807 61.2841C42.5455 61.642 43.0625 62.1875 43.4318 62.9205C43.8011 63.6477 43.9858 64.5682 43.9858 65.6818V74H41.9744V65.8182C41.9744 64.7898 41.7074 63.9886 41.1733 63.4148C40.6392 62.8352 39.9063 62.5455 38.9744 62.5455C38.3324 62.5455 37.7585 62.6847 37.2528 62.9631C36.7528 63.2415 36.358 63.6477 36.0682 64.1818C35.7784 64.7159 35.6335 65.3636 35.6335 66.125ZM49.6726 66.125V74H47.6612V60.9091H49.6044V62.9545H49.7749C50.0817 62.2898 50.5476 61.7557 51.1726 61.3523C51.7976 60.9432 52.6044 60.7386 53.593 60.7386C54.4794 60.7386 55.255 60.9205 55.9197 61.2841C56.5845 61.642 57.1016 62.1875 57.4709 62.9205C57.8402 63.6477 58.0249 64.5682 58.0249 65.6818V74H56.0135V65.8182C56.0135 64.7898 55.7464 63.9886 55.2124 63.4148C54.6783 62.8352 53.9453 62.5455 53.0135 62.5455C52.3714 62.5455 51.7976 62.6847 51.2919 62.9631C50.7919 63.2415 50.397 63.6477 50.1072 64.1818C49.8175 64.7159 49.6726 65.3636 49.6726 66.125ZM67.1889 74.2727C65.9276 74.2727 64.8395 73.9943 63.9247 73.4375C63.0156 72.875 62.3139 72.0909 61.8196 71.0852C61.331 70.0739 61.0866 68.8977 61.0866 67.5568C61.0866 66.2159 61.331 65.0341 61.8196 64.0114C62.3139 62.983 63.0014 62.1818 63.8821 61.608C64.7685 61.0284 65.8026 60.7386 66.9844 60.7386C67.6662 60.7386 68.3395 60.8523 69.0043 61.0795C69.669 61.3068 70.2741 61.6761 70.8196 62.1875C71.3651 62.6932 71.7997 63.3636 72.1236 64.1989C72.4474 65.0341 72.6094 66.0625 72.6094 67.2841V68.1364H62.5185V66.3977H70.5639C70.5639 65.6591 70.4162 65 70.1207 64.4205C69.831 63.8409 69.4162 63.3835 68.8764 63.0483C68.3423 62.7131 67.7116 62.5455 66.9844 62.5455C66.1832 62.5455 65.4901 62.7443 64.9048 63.142C64.3253 63.5341 63.8793 64.0455 63.5668 64.6761C63.2543 65.3068 63.098 65.983 63.098 66.7045V67.8636C63.098 68.8523 63.2685 69.6903 63.6094 70.3778C63.956 71.0597 64.4361 71.5795 65.0497 71.9375C65.6634 72.2898 66.3764 72.4659 67.1889 72.4659C67.7173 72.4659 68.1946 72.392 68.6207 72.2443C69.0526 72.0909 69.4247 71.8636 69.7372 71.5625C70.0497 71.2557 70.2912 70.875 70.4616 70.4205L72.4048 70.9659C72.2003 71.625 71.8565 72.2045 71.3736 72.7045C70.8906 73.1989 70.294 73.5852 69.5838 73.8636C68.8736 74.1364 68.0753 74.2727 67.1889 74.2727ZM80.9872 74.2727C79.7599 74.2727 78.7031 73.983 77.8168 73.4034C76.9304 72.8239 76.2486 72.0256 75.7713 71.0085C75.294 69.9915 75.0554 68.8295 75.0554 67.5227C75.0554 66.1932 75.2997 65.0199 75.7884 64.0028C76.2827 62.9801 76.9702 62.1818 77.8509 61.608C78.7372 61.0284 79.7713 60.7386 80.9531 60.7386C81.8736 60.7386 82.7031 60.9091 83.4418 61.25C84.1804 61.5909 84.7855 62.0682 85.2571 62.6818C85.7287 63.2955 86.0213 64.0114 86.1349 64.8295H84.1236C83.9702 64.233 83.6293 63.7045 83.1009 63.2443C82.5781 62.7784 81.8736 62.5455 80.9872 62.5455C80.2031 62.5455 79.5156 62.75 78.9247 63.1591C78.3395 63.5625 77.8821 64.1335 77.5526 64.8722C77.2287 65.6051 77.0668 66.4659 77.0668 67.4545C77.0668 68.4659 77.2259 69.3466 77.544 70.0966C77.8679 70.8466 78.3224 71.429 78.9077 71.8438C79.4986 72.2585 80.1918 72.4659 80.9872 72.4659C81.5099 72.4659 81.9844 72.375 82.4105 72.1932C82.8366 72.0114 83.1974 71.75 83.4929 71.4091C83.7884 71.0682 83.9986 70.6591 84.1236 70.1818H86.1349C86.0213 70.9545 85.7401 71.6506 85.2912 72.2699C84.848 72.8835 84.2599 73.3722 83.527 73.7358C82.7997 74.0938 81.9531 74.2727 80.9872 74.2727ZM94.7685 60.9091V62.6136H87.9844V60.9091H94.7685ZM89.9616 57.7727H91.973V70.25C91.973 70.8182 92.0554 71.2443 92.2202 71.5284C92.3906 71.8068 92.6065 71.9943 92.8679 72.0909C93.1349 72.1818 93.4162 72.2273 93.7116 72.2273C93.9332 72.2273 94.1151 72.2159 94.2571 72.1932C94.3991 72.1648 94.5128 72.142 94.598 72.125L95.0071 73.9318C94.8707 73.983 94.6804 74.0341 94.4361 74.0852C94.1918 74.142 93.8821 74.1705 93.5071 74.1705C92.9389 74.1705 92.3821 74.0483 91.8366 73.804C91.2969 73.5597 90.848 73.1875 90.4901 72.6875C90.1378 72.1875 89.9616 71.5568 89.9616 70.7955V57.7727ZM97.794 74V60.9091H99.8054V74H97.794ZM98.8168 58.7273C98.4247 58.7273 98.0866 58.5938 97.8026 58.3267C97.5241 58.0597 97.3849 57.7386 97.3849 57.3636C97.3849 56.9886 97.5241 56.6676 97.8026 56.4006C98.0866 56.1335 98.4247 56 98.8168 56C99.2088 56 99.544 56.1335 99.8224 56.4006C100.107 56.6676 100.249 56.9886 100.249 57.3636C100.249 57.7386 100.107 58.0597 99.8224 58.3267C99.544 58.5938 99.2088 58.7273 98.8168 58.7273ZM105.501 66.125V74H103.489V60.9091H105.433V62.9545H105.603C105.91 62.2898 106.376 61.7557 107.001 61.3523C107.626 60.9432 108.433 60.7386 109.421 60.7386C110.308 60.7386 111.083 60.9205 111.748 61.2841C112.413 61.642 112.93 62.1875 113.299 62.9205C113.668 63.6477 113.853 64.5682 113.853 65.6818V74H111.842V65.8182C111.842 64.7898 111.575 63.9886 111.04 63.4148C110.506 62.8352 109.773 62.5455 108.842 62.5455C108.2 62.5455 107.626 62.6847 107.12 62.9631C106.62 63.2415 106.225 63.6477 105.935 64.1818C105.646 64.7159 105.501 65.3636 105.501 66.125ZM122.812 79.1818C121.841 79.1818 121.006 79.0568 120.307 78.8068C119.608 78.5625 119.026 78.2386 118.56 77.8352C118.099 77.4375 117.733 77.0114 117.46 76.5568L119.062 75.4318C119.244 75.6705 119.474 75.9432 119.753 76.25C120.031 76.5625 120.412 76.8324 120.895 77.0597C121.384 77.2926 122.023 77.4091 122.812 77.4091C123.869 77.4091 124.741 77.1534 125.429 76.642C126.116 76.1307 126.46 75.3295 126.46 74.2386V71.5795H126.29C126.142 71.8182 125.932 72.1136 125.659 72.4659C125.392 72.8125 125.006 73.1222 124.5 73.3949C124 73.6619 123.324 73.7955 122.472 73.7955C121.415 73.7955 120.466 73.5455 119.625 73.0455C118.79 72.5455 118.128 71.8182 117.639 70.8636C117.156 69.9091 116.915 68.75 116.915 67.3864C116.915 66.0455 117.151 64.8778 117.622 63.8835C118.094 62.8835 118.75 62.1108 119.591 61.5653C120.432 61.0142 121.403 60.7386 122.506 60.7386C123.358 60.7386 124.034 60.8807 124.534 61.1648C125.04 61.4432 125.426 61.7614 125.693 62.1193C125.966 62.4716 126.176 62.7614 126.324 62.9886H126.528V60.9091H128.472V74.375C128.472 75.5 128.216 76.4148 127.705 77.1193C127.199 77.8295 126.517 78.3494 125.659 78.679C124.807 79.0142 123.858 79.1818 122.812 79.1818ZM122.744 71.9886C123.551 71.9886 124.233 71.804 124.79 71.4347C125.347 71.0653 125.77 70.5341 126.06 69.8409C126.349 69.1477 126.494 68.3182 126.494 67.3523C126.494 66.4091 126.352 65.5767 126.068 64.8551C125.784 64.1335 125.364 63.5682 124.807 63.1591C124.25 62.75 123.563 62.5455 122.744 62.5455C121.892 62.5455 121.182 62.7614 120.614 63.1932C120.051 63.625 119.628 64.2045 119.344 64.9318C119.065 65.6591 118.926 66.4659 118.926 67.3523C118.926 68.2614 119.068 69.0653 119.352 69.7642C119.642 70.4574 120.068 71.0028 120.631 71.4006C121.199 71.7926 121.903 71.9886 122.744 71.9886ZM138.222 58.4205V56.5455H151.312V58.4205H145.824V74H143.71V58.4205H138.222ZM156.373 74.3068C155.543 74.3068 154.79 74.1506 154.114 73.8381C153.438 73.5199 152.901 73.0625 152.504 72.4659C152.106 71.8636 151.907 71.1364 151.907 70.2841C151.907 69.5341 152.055 68.9261 152.35 68.4602C152.646 67.9886 153.04 67.6193 153.535 67.3523C154.029 67.0852 154.575 66.8864 155.171 66.7557C155.773 66.6193 156.379 66.5114 156.987 66.4318C157.782 66.3295 158.427 66.2528 158.921 66.2017C159.421 66.1449 159.785 66.0511 160.012 65.9205C160.245 65.7898 160.362 65.5625 160.362 65.2386V65.1705C160.362 64.3295 160.131 63.6761 159.671 63.2102C159.217 62.7443 158.526 62.5114 157.6 62.5114C156.64 62.5114 155.887 62.7216 155.342 63.142C154.796 63.5625 154.413 64.0114 154.191 64.4886L152.282 63.8068C152.623 63.0114 153.077 62.392 153.646 61.9489C154.219 61.5 154.844 61.1875 155.521 61.0114C156.202 60.8295 156.873 60.7386 157.532 60.7386C157.952 60.7386 158.435 60.7898 158.981 60.892C159.532 60.9886 160.063 61.1903 160.575 61.4972C161.092 61.804 161.521 62.267 161.862 62.8864C162.202 63.5057 162.373 64.3352 162.373 65.375V74H160.362V72.2273H160.259C160.123 72.5114 159.896 72.8153 159.577 73.1392C159.259 73.4631 158.836 73.7386 158.308 73.9659C157.779 74.1932 157.134 74.3068 156.373 74.3068ZM156.68 72.5C157.475 72.5 158.146 72.3438 158.691 72.0312C159.242 71.7188 159.657 71.3153 159.935 70.821C160.219 70.3267 160.362 69.8068 160.362 69.2614V67.4205C160.276 67.5227 160.089 67.6165 159.799 67.7017C159.515 67.7812 159.185 67.8523 158.81 67.9148C158.441 67.9716 158.08 68.0227 157.728 68.0682C157.381 68.108 157.1 68.142 156.884 68.1705C156.362 68.2386 155.873 68.3494 155.418 68.5028C154.969 68.6506 154.606 68.875 154.327 69.1761C154.055 69.4716 153.918 69.875 153.918 70.3864C153.918 71.0852 154.177 71.6136 154.694 71.9716C155.217 72.3239 155.879 72.5 156.68 72.5ZM168.055 56.5455V74H166.044V56.5455H168.055ZM177.228 74.2727C175.967 74.2727 174.879 73.9943 173.964 73.4375C173.055 72.875 172.353 72.0909 171.859 71.0852C171.37 70.0739 171.126 68.8977 171.126 67.5568C171.126 66.2159 171.37 65.0341 171.859 64.0114C172.353 62.983 173.04 62.1818 173.921 61.608C174.808 61.0284 175.842 60.7386 177.023 60.7386C177.705 60.7386 178.379 60.8523 179.043 61.0795C179.708 61.3068 180.313 61.6761 180.859 62.1875C181.404 62.6932 181.839 63.3636 182.163 64.1989C182.487 65.0341 182.648 66.0625 182.648 67.2841V68.1364H172.558V66.3977H180.603C180.603 65.6591 180.455 65 180.16 64.4205C179.87 63.8409 179.455 63.3835 178.915 63.0483C178.381 62.7131 177.751 62.5455 177.023 62.5455C176.222 62.5455 175.529 62.7443 174.944 63.142C174.364 63.5341 173.918 64.0455 173.606 64.6761C173.293 65.3068 173.137 65.983 173.137 66.7045V67.8636C173.137 68.8523 173.308 69.6903 173.648 70.3778C173.995 71.0597 174.475 71.5795 175.089 71.9375C175.702 72.2898 176.415 72.4659 177.228 72.4659C177.756 72.4659 178.234 72.392 178.66 72.2443C179.092 72.0909 179.464 71.8636 179.776 71.5625C180.089 71.2557 180.33 70.875 180.501 70.4205L182.444 70.9659C182.239 71.625 181.896 72.2045 181.413 72.7045C180.93 73.1989 180.333 73.5852 179.623 73.8636C178.913 74.1364 178.114 74.2727 177.228 74.2727ZM187.719 66.125V74H185.708V60.9091H187.651V62.9545H187.822C188.129 62.2898 188.594 61.7557 189.219 61.3523C189.844 60.9432 190.651 60.7386 191.64 60.7386C192.526 60.7386 193.302 60.9205 193.967 61.2841C194.631 61.642 195.148 62.1875 195.518 62.9205C195.887 63.6477 196.072 64.5682 196.072 65.6818V74H194.06V65.8182C194.06 64.7898 193.793 63.9886 193.259 63.4148C192.725 62.8352 191.992 62.5455 191.06 62.5455C190.418 62.5455 189.844 62.6847 189.339 62.9631C188.839 63.2415 188.444 63.6477 188.154 64.1818C187.864 64.7159 187.719 65.3636 187.719 66.125ZM205.44 60.9091V62.6136H198.656V60.9091H205.44ZM200.634 57.7727H202.645V70.25C202.645 70.8182 202.727 71.2443 202.892 71.5284C203.063 71.8068 203.278 71.9943 203.54 72.0909C203.807 72.1818 204.088 72.2273 204.384 72.2273C204.605 72.2273 204.787 72.2159 204.929 72.1932C205.071 72.1648 205.185 72.142 205.27 72.125L205.679 73.9318C205.543 73.983 205.352 74.0341 205.108 74.0852C204.864 74.142 204.554 74.1705 204.179 74.1705C203.611 74.1705 203.054 74.0483 202.509 73.804C201.969 73.5597 201.52 73.1875 201.162 72.6875C200.81 72.1875 200.634 71.5568 200.634 70.7955V57.7727ZM217.504 63.8409L215.697 64.3523C215.584 64.0511 215.416 63.7585 215.195 63.4744C214.979 63.1847 214.683 62.946 214.308 62.7585C213.933 62.571 213.453 62.4773 212.868 62.4773C212.067 62.4773 211.399 62.6619 210.865 63.0312C210.337 63.3949 210.072 63.858 210.072 64.4205C210.072 64.9205 210.254 65.3153 210.618 65.6051C210.982 65.8949 211.55 66.1364 212.322 66.3295L214.266 66.8068C215.436 67.0909 216.308 67.5256 216.882 68.1108C217.456 68.6903 217.743 69.4375 217.743 70.3523C217.743 71.1023 217.527 71.7727 217.095 72.3636C216.669 72.9545 216.072 73.4205 215.305 73.7614C214.538 74.1023 213.646 74.2727 212.629 74.2727C211.294 74.2727 210.189 73.983 209.314 73.4034C208.439 72.8239 207.885 71.9773 207.652 70.8636L209.561 70.3864C209.743 71.0909 210.087 71.6193 210.592 71.9716C211.104 72.3239 211.771 72.5 212.595 72.5C213.533 72.5 214.277 72.3011 214.828 71.9034C215.385 71.5 215.663 71.017 215.663 70.4545C215.663 70 215.504 69.6193 215.186 69.3125C214.868 69 214.379 68.767 213.72 68.6136L211.538 68.1023C210.339 67.8182 209.459 67.3778 208.896 66.7812C208.339 66.179 208.061 65.4261 208.061 64.5227C208.061 63.7841 208.268 63.1307 208.683 62.5625C209.104 61.9943 209.675 61.5483 210.396 61.2244C211.124 60.9006 211.947 60.7386 212.868 60.7386C214.163 60.7386 215.18 61.0227 215.919 61.5909C216.663 62.1591 217.192 62.9091 217.504 63.8409ZM223.771 71.6136L223.634 72.5341C223.538 73.1818 223.39 73.875 223.191 74.6136C222.998 75.3523 222.796 76.0483 222.586 76.7017C222.376 77.3551 222.202 77.875 222.066 78.2614H220.532C220.606 77.8977 220.702 77.4176 220.822 76.821C220.941 76.2244 221.06 75.5568 221.18 74.8182C221.305 74.0852 221.407 73.3352 221.487 72.5682L221.589 71.6136H223.771ZM234.52 56.5455H237.043L242.974 71.0341H243.179L249.111 56.5455H251.634V74H249.656V60.7386H249.486L244.031 74H242.122L236.668 60.7386H236.497V74H234.52V56.5455ZM259.451 74.3068C258.621 74.3068 257.869 74.1506 257.192 73.8381C256.516 73.5199 255.979 73.0625 255.582 72.4659C255.184 71.8636 254.985 71.1364 254.985 70.2841C254.985 69.5341 255.133 68.9261 255.428 68.4602C255.724 67.9886 256.119 67.6193 256.613 67.3523C257.107 67.0852 257.653 66.8864 258.249 66.7557C258.852 66.6193 259.457 66.5114 260.065 66.4318C260.86 66.3295 261.505 66.2528 261.999 66.2017C262.499 66.1449 262.863 66.0511 263.09 65.9205C263.323 65.7898 263.44 65.5625 263.44 65.2386V65.1705C263.44 64.3295 263.21 63.6761 262.749 63.2102C262.295 62.7443 261.604 62.5114 260.678 62.5114C259.718 62.5114 258.965 62.7216 258.42 63.142C257.874 63.5625 257.491 64.0114 257.269 64.4886L255.36 63.8068C255.701 63.0114 256.156 62.392 256.724 61.9489C257.298 61.5 257.923 61.1875 258.599 61.0114C259.281 60.8295 259.951 60.7386 260.61 60.7386C261.031 60.7386 261.513 60.7898 262.059 60.892C262.61 60.9886 263.141 61.1903 263.653 61.4972C264.17 61.804 264.599 62.267 264.94 62.8864C265.281 63.5057 265.451 64.3352 265.451 65.375V74H263.44V72.2273H263.337C263.201 72.5114 262.974 72.8153 262.656 73.1392C262.337 73.4631 261.914 73.7386 261.386 73.9659C260.857 74.1932 260.212 74.3068 259.451 74.3068ZM259.758 72.5C260.553 72.5 261.224 72.3438 261.769 72.0312C262.32 71.7188 262.735 71.3153 263.013 70.821C263.298 70.3267 263.44 69.8068 263.44 69.2614V67.4205C263.354 67.5227 263.167 67.6165 262.877 67.7017C262.593 67.7812 262.263 67.8523 261.888 67.9148C261.519 67.9716 261.158 68.0227 260.806 68.0682C260.46 68.108 260.178 68.142 259.962 68.1705C259.44 68.2386 258.951 68.3494 258.496 68.5028C258.048 68.6506 257.684 68.875 257.406 69.1761C257.133 69.4716 256.996 69.875 256.996 70.3864C256.996 71.0852 257.255 71.6136 257.772 71.9716C258.295 72.3239 258.957 72.5 259.758 72.5ZM270.997 69.2273L270.963 66.7386H271.372L277.099 60.9091H279.588L273.486 67.0795H273.315L270.997 69.2273ZM269.122 74V56.5455H271.134V74H269.122ZM277.44 74L272.327 67.5227L273.759 66.125L279.997 74H277.44ZM287.126 74.2727C285.865 74.2727 284.777 73.9943 283.862 73.4375C282.953 72.875 282.251 72.0909 281.757 71.0852C281.268 70.0739 281.024 68.8977 281.024 67.5568C281.024 66.2159 281.268 65.0341 281.757 64.0114C282.251 62.983 282.939 62.1818 283.82 61.608C284.706 61.0284 285.74 60.7386 286.922 60.7386C287.604 60.7386 288.277 60.8523 288.942 61.0795C289.607 61.3068 290.212 61.6761 290.757 62.1875C291.303 62.6932 291.737 63.3636 292.061 64.1989C292.385 65.0341 292.547 66.0625 292.547 67.2841V68.1364H282.456V66.3977H290.501C290.501 65.6591 290.354 65 290.058 64.4205C289.768 63.8409 289.354 63.3835 288.814 63.0483C288.28 62.7131 287.649 62.5455 286.922 62.5455C286.121 62.5455 285.428 62.7443 284.842 63.142C284.263 63.5341 283.817 64.0455 283.504 64.6761C283.192 65.3068 283.036 65.983 283.036 66.7045V67.8636C283.036 68.8523 283.206 69.6903 283.547 70.3778C283.893 71.0597 284.374 71.5795 284.987 71.9375C285.601 72.2898 286.314 72.4659 287.126 72.4659C287.655 72.4659 288.132 72.392 288.558 72.2443C288.99 72.0909 289.362 71.8636 289.675 71.5625C289.987 71.2557 290.229 70.875 290.399 70.4205L292.342 70.9659C292.138 71.625 291.794 72.2045 291.311 72.7045C290.828 73.1989 290.232 73.5852 289.521 73.8636C288.811 74.1364 288.013 74.2727 287.126 74.2727ZM302.629 74V56.5455H304.743V64.3182H314.05V56.5455H316.163V74H314.05V66.1932H304.743V74H302.629ZM320.122 74V60.9091H322.134V74H320.122ZM321.145 58.7273C320.753 58.7273 320.415 58.5938 320.131 58.3267C319.852 58.0597 319.713 57.7386 319.713 57.3636C319.713 56.9886 319.852 56.6676 320.131 56.4006C320.415 56.1335 320.753 56 321.145 56C321.537 56 321.872 56.1335 322.151 56.4006C322.435 56.6676 322.577 56.9886 322.577 57.3636C322.577 57.7386 322.435 58.0597 322.151 58.3267C321.872 58.5938 321.537 58.7273 321.145 58.7273ZM325.817 74V60.9091H327.761V62.8864H327.897C328.136 62.2386 328.567 61.7131 329.192 61.3097C329.817 60.9062 330.522 60.7045 331.306 60.7045C331.454 60.7045 331.638 60.7074 331.86 60.7131C332.082 60.7187 332.249 60.7273 332.363 60.7386V62.7841C332.295 62.767 332.138 62.7415 331.894 62.7074C331.656 62.6676 331.403 62.6477 331.136 62.6477C330.499 62.6477 329.931 62.7812 329.431 63.0483C328.937 63.3097 328.545 63.6733 328.255 64.1392C327.971 64.5994 327.829 65.125 327.829 65.7159V74H325.817ZM334.747 74V60.9091H336.759V74H334.747ZM335.77 58.7273C335.378 58.7273 335.04 58.5938 334.756 58.3267C334.477 58.0597 334.338 57.7386 334.338 57.3636C334.338 56.9886 334.477 56.6676 334.756 56.4006C335.04 56.1335 335.378 56 335.77 56C336.162 56 336.497 56.1335 336.776 56.4006C337.06 56.6676 337.202 56.9886 337.202 57.3636C337.202 57.7386 337.06 58.0597 336.776 58.3267C336.497 58.5938 336.162 58.7273 335.77 58.7273ZM342.454 66.125V74H340.442V60.9091H342.386V62.9545H342.556C342.863 62.2898 343.329 61.7557 343.954 61.3523C344.579 60.9432 345.386 60.7386 346.374 60.7386C347.261 60.7386 348.036 60.9205 348.701 61.2841C349.366 61.642 349.883 62.1875 350.252 62.9205C350.621 63.6477 350.806 64.5682 350.806 65.6818V74H348.795V65.8182C348.795 64.7898 348.528 63.9886 347.994 63.4148C347.46 62.8352 346.727 62.5455 345.795 62.5455C345.153 62.5455 344.579 62.6847 344.073 62.9631C343.573 63.2415 343.178 63.6477 342.888 64.1818C342.599 64.7159 342.454 65.3636 342.454 66.125ZM359.766 79.1818C358.794 79.1818 357.959 79.0568 357.26 78.8068C356.561 78.5625 355.979 78.2386 355.513 77.8352C355.053 77.4375 354.686 77.0114 354.413 76.5568L356.016 75.4318C356.197 75.6705 356.428 75.9432 356.706 76.25C356.984 76.5625 357.365 76.8324 357.848 77.0597C358.337 77.2926 358.976 77.4091 359.766 77.4091C360.822 77.4091 361.695 77.1534 362.382 76.642C363.07 76.1307 363.413 75.3295 363.413 74.2386V71.5795H363.243C363.095 71.8182 362.885 72.1136 362.612 72.4659C362.345 72.8125 361.959 73.1222 361.453 73.3949C360.953 73.6619 360.277 73.7955 359.425 73.7955C358.368 73.7955 357.419 73.5455 356.578 73.0455C355.743 72.5455 355.081 71.8182 354.592 70.8636C354.109 69.9091 353.868 68.75 353.868 67.3864C353.868 66.0455 354.104 64.8778 354.575 63.8835C355.047 62.8835 355.703 62.1108 356.544 61.5653C357.385 61.0142 358.357 60.7386 359.459 60.7386C360.311 60.7386 360.987 60.8807 361.487 61.1648C361.993 61.4432 362.379 61.7614 362.646 62.1193C362.919 62.4716 363.129 62.7614 363.277 62.9886H363.482V60.9091H365.425V74.375C365.425 75.5 365.169 76.4148 364.658 77.1193C364.152 77.8295 363.47 78.3494 362.612 78.679C361.76 79.0142 360.811 79.1818 359.766 79.1818ZM359.697 71.9886C360.504 71.9886 361.186 71.804 361.743 71.4347C362.3 71.0653 362.723 70.5341 363.013 69.8409C363.303 69.1477 363.447 68.3182 363.447 67.3523C363.447 66.4091 363.305 65.5767 363.021 64.8551C362.737 64.1335 362.317 63.5682 361.76 63.1591C361.203 62.75 360.516 62.5455 359.697 62.5455C358.845 62.5455 358.135 62.7614 357.567 63.1932C357.004 63.625 356.581 64.2045 356.297 64.9318C356.018 65.6591 355.879 66.4659 355.879 67.3523C355.879 68.2614 356.021 69.0653 356.305 69.7642C356.595 70.4574 357.021 71.0028 357.584 71.4006C358.152 71.7926 358.857 71.9886 359.697 71.9886ZM381.345 74.2727C380.084 74.2727 378.996 73.9943 378.081 73.4375C377.172 72.875 376.47 72.0909 375.976 71.0852C375.487 70.0739 375.243 68.8977 375.243 67.5568C375.243 66.2159 375.487 65.0341 375.976 64.0114C376.47 62.983 377.158 62.1818 378.038 61.608C378.925 61.0284 379.959 60.7386 381.141 60.7386C381.822 60.7386 382.496 60.8523 383.161 61.0795C383.825 61.3068 384.43 61.6761 384.976 62.1875C385.521 62.6932 385.956 63.3636 386.28 64.1989C386.604 65.0341 386.766 66.0625 386.766 67.2841V68.1364H376.675V66.3977H384.72C384.72 65.6591 384.572 65 384.277 64.4205C383.987 63.8409 383.572 63.3835 383.033 63.0483C382.499 62.7131 381.868 62.5455 381.141 62.5455C380.339 62.5455 379.646 62.7443 379.061 63.142C378.482 63.5341 378.036 64.0455 377.723 64.6761C377.411 65.3068 377.254 65.983 377.254 66.7045V67.8636C377.254 68.8523 377.425 69.6903 377.766 70.3778C378.112 71.0597 378.592 71.5795 379.206 71.9375C379.82 72.2898 380.533 72.4659 381.345 72.4659C381.874 72.4659 382.351 72.392 382.777 72.2443C383.209 72.0909 383.581 71.8636 383.893 71.5625C384.206 71.2557 384.447 70.875 384.618 70.4205L386.561 70.9659C386.357 71.625 386.013 72.2045 385.53 72.7045C385.047 73.1989 384.45 73.5852 383.74 73.8636C383.03 74.1364 382.232 74.2727 381.345 74.2727ZM393.678 74.3068C392.848 74.3068 392.095 74.1506 391.419 73.8381C390.743 73.5199 390.206 73.0625 389.808 72.4659C389.411 71.8636 389.212 71.1364 389.212 70.2841C389.212 69.5341 389.359 68.9261 389.655 68.4602C389.95 67.9886 390.345 67.6193 390.839 67.3523C391.334 67.0852 391.879 66.8864 392.476 66.7557C393.078 66.6193 393.683 66.5114 394.291 66.4318C395.087 66.3295 395.732 66.2528 396.226 66.2017C396.726 66.1449 397.089 66.0511 397.317 65.9205C397.55 65.7898 397.666 65.5625 397.666 65.2386V65.1705C397.666 64.3295 397.436 63.6761 396.976 63.2102C396.521 62.7443 395.831 62.5114 394.905 62.5114C393.945 62.5114 393.192 62.7216 392.646 63.142C392.101 63.5625 391.717 64.0114 391.496 64.4886L389.587 63.8068C389.928 63.0114 390.382 62.392 390.95 61.9489C391.524 61.5 392.149 61.1875 392.825 61.0114C393.507 60.8295 394.178 60.7386 394.837 60.7386C395.257 60.7386 395.74 60.7898 396.286 60.892C396.837 60.9886 397.368 61.1903 397.879 61.4972C398.396 61.804 398.825 62.267 399.166 62.8864C399.507 63.5057 399.678 64.3352 399.678 65.375V74H397.666V72.2273H397.564C397.428 72.5114 397.2 72.8153 396.882 73.1392C396.564 73.4631 396.141 73.7386 395.612 73.9659C395.084 74.1932 394.439 74.3068 393.678 74.3068ZM393.984 72.5C394.78 72.5 395.45 72.3438 395.996 72.0312C396.547 71.7188 396.962 71.3153 397.24 70.821C397.524 70.3267 397.666 69.8068 397.666 69.2614V67.4205C397.581 67.5227 397.393 67.6165 397.104 67.7017C396.82 67.7812 396.49 67.8523 396.115 67.9148C395.746 67.9716 395.385 68.0227 395.033 68.0682C394.686 68.108 394.405 68.142 394.189 68.1705C393.666 68.2386 393.178 68.3494 392.723 68.5028C392.274 68.6506 391.911 68.875 391.632 69.1761C391.359 69.4716 391.223 69.875 391.223 70.3864C391.223 71.0852 391.482 71.6136 391.999 71.9716C392.521 72.3239 393.183 72.5 393.984 72.5ZM412.621 63.8409L410.815 64.3523C410.701 64.0511 410.533 63.7585 410.312 63.4744C410.096 63.1847 409.8 62.946 409.425 62.7585C409.05 62.571 408.57 62.4773 407.985 62.4773C407.184 62.4773 406.516 62.6619 405.982 63.0312C405.454 63.3949 405.19 63.858 405.19 64.4205C405.19 64.9205 405.371 65.3153 405.735 65.6051C406.099 65.8949 406.667 66.1364 407.44 66.3295L409.383 66.8068C410.553 67.0909 411.425 67.5256 411.999 68.1108C412.573 68.6903 412.86 69.4375 412.86 70.3523C412.86 71.1023 412.644 71.7727 412.212 72.3636C411.786 72.9545 411.19 73.4205 410.423 73.7614C409.656 74.1023 408.763 74.2727 407.746 74.2727C406.411 74.2727 405.306 73.983 404.431 73.4034C403.556 72.8239 403.002 71.9773 402.769 70.8636L404.678 70.3864C404.86 71.0909 405.204 71.6193 405.71 71.9716C406.221 72.3239 406.888 72.5 407.712 72.5C408.65 72.5 409.394 72.3011 409.945 71.9034C410.502 71.5 410.781 71.017 410.781 70.4545C410.781 70 410.621 69.6193 410.303 69.3125C409.985 69 409.496 68.767 408.837 68.6136L406.656 68.1023C405.457 67.8182 404.576 67.3778 404.013 66.7812C403.457 66.179 403.178 65.4261 403.178 64.5227C403.178 63.7841 403.386 63.1307 403.8 62.5625C404.221 61.9943 404.792 61.5483 405.513 61.2244C406.241 60.9006 407.065 60.7386 407.985 60.7386C409.281 60.7386 410.298 61.0227 411.036 61.5909C411.781 62.1591 412.309 62.9091 412.621 63.8409ZM415.888 74V60.9091H417.899V74H415.888ZM416.911 58.7273C416.518 58.7273 416.18 58.5938 415.896 58.3267C415.618 58.0597 415.479 57.7386 415.479 57.3636C415.479 56.9886 415.618 56.6676 415.896 56.4006C416.18 56.1335 416.518 56 416.911 56C417.303 56 417.638 56.1335 417.916 56.4006C418.2 56.6676 418.342 56.9886 418.342 57.3636C418.342 57.7386 418.2 58.0597 417.916 58.3267C417.638 58.5938 417.303 58.7273 416.911 58.7273ZM427.072 74.2727C425.81 74.2727 424.722 73.9943 423.808 73.4375C422.898 72.875 422.197 72.0909 421.702 71.0852C421.214 70.0739 420.969 68.8977 420.969 67.5568C420.969 66.2159 421.214 65.0341 421.702 64.0114C422.197 62.983 422.884 62.1818 423.765 61.608C424.651 61.0284 425.685 60.7386 426.867 60.7386C427.549 60.7386 428.222 60.8523 428.887 61.0795C429.552 61.3068 430.157 61.6761 430.702 62.1875C431.248 62.6932 431.683 63.3636 432.006 64.1989C432.33 65.0341 432.492 66.0625 432.492 67.2841V68.1364H422.401V66.3977H430.447C430.447 65.6591 430.299 65 430.004 64.4205C429.714 63.8409 429.299 63.3835 428.759 63.0483C428.225 62.7131 427.594 62.5455 426.867 62.5455C426.066 62.5455 425.373 62.7443 424.788 63.142C424.208 63.5341 423.762 64.0455 423.45 64.6761C423.137 65.3068 422.981 65.983 422.981 66.7045V67.8636C422.981 68.8523 423.151 69.6903 423.492 70.3778C423.839 71.0597 424.319 71.5795 424.933 71.9375C425.546 72.2898 426.259 72.4659 427.072 72.4659C427.6 72.4659 428.077 72.392 428.504 72.2443C428.935 72.0909 429.308 71.8636 429.62 71.5625C429.933 71.2557 430.174 70.875 430.344 70.4205L432.288 70.9659C432.083 71.625 431.739 72.2045 431.256 72.7045C430.773 73.1989 430.177 73.5852 429.467 73.8636C428.756 74.1364 427.958 74.2727 427.072 74.2727ZM435.552 74V60.9091H437.495V62.8864H437.631C437.87 62.2386 438.302 61.7131 438.927 61.3097C439.552 60.9062 440.256 60.7045 441.04 60.7045C441.188 60.7045 441.373 60.7074 441.594 60.7131C441.816 60.7187 441.984 60.7273 442.097 60.7386V62.7841C442.029 62.767 441.873 62.7415 441.629 62.7074C441.39 62.6676 441.137 62.6477 440.87 62.6477C440.234 62.6477 439.665 62.7812 439.165 63.0483C438.671 63.3097 438.279 63.6733 437.989 64.1392C437.705 64.5994 437.563 65.125 437.563 65.7159V74H435.552Z" fill="#B794E4"/>
</svg>
